QC data on Spectronaut BGS report
…
dfBGS %>% 
  SummaryTableSamples(exportTable = T) -> t

Condition table

Summary table calculating files per condition, mean number of proteins, min/max number of proteins, mean number of peptides and min/max number of peptides.

Show the code

dfBGS %>% 
  SummaryTableConditions() -> s

s

# A tibble: 22 × 6
   Condition         Files MeanProteins RangeProteins MeanPeptides RangePeptides
   <chr>             <int>        <dbl> <chr>                <dbl> <chr>        
 1 pig126_day minus…     3        1060  1009-1157            8726. 8340-9447    
 2 pig126_day1           3        1023  817-1199             8050  6371-9548    
 3 pig126_day14          3        1446  1394-1514           11153. 10673-11864  
 4 pig126_day2           2        1138. 1114-1163            9938. 9896-9979    
 5 pig126_day21          3        1328. 933-2062            10943  8028-16256   
 6 pig126_day28          3        1001. 895-1073             8655. 7213-9417    
 7 pig126_day42          3         849. 458-1102             6957  3600-8724    
 8 pig126_day5           3        1120  1087-1166            8982. 8533-9339    
 9 pig126_day56          3        1099. 1031-1136            9045  8704-9508    
10 pig126_day7           3         987. 809-1274             7134. 6086-9098    
# ℹ 12 more rows
…
